%YAML 1.1
%TAG !u! tag:unity3d.com,2011:
--- !u!114 &11400000
MonoBehaviour:
  m_ObjectHideFlags: 0
  m_PrefabParentObject: {fileID: 0}
  m_PrefabInternal: {fileID: 0}
  m_GameObject: {fileID: 0}
  m_Enabled: 1
  m_EditorHideFlags: 0
  m_Script: {fileID: 11500000, guid: b7f59e54f2bfd184b9dd451a678d089b, type: 3}
  m_Name: Vibration
  m_EditorClassIdentifier: 
  m_Position:
  - X:
      Amplitude: 0
      Frequency: 0
    Y:
      Amplitude: 0
      Frequency: 0
    Z:
      Amplitude: 0
      Frequency: 0
  - X:
      Amplitude: 0
      Frequency: 0
    Y:
      Amplitude: 0
      Frequency: 0
    Z:
      Amplitude: 0
      Frequency: 0
  m_Orientation:
  - X:
      Amplitude: 20
      Frequency: 3
    Y:
      Amplitude: 5
      Frequency: 0.8
    Z:
      Amplitude: 0
      Frequency: 0
  - X:
      Amplitude: 15
      Frequency: 4
    Y:
      Amplitude: 5
      Frequency: 1
    Z:
      Amplitude: 0
      Frequency: 0
